{
  "CN13KND1RJ": {
    "_sys_gateway": "192.168.0.1", 
    "_sys_hostname": "myswitch1", 
    "_sys_ip_address": "192.168.0.3", 
    "_sys_lan_mac": "MAC", 
    "_sys_netmask": "24", 
    "_sys_serial": "SERIAL", 
    "_sys_use_dhcp": "0", 
    "location": "test", 
    "model": "6100-48G", 
    "nf_nac": "1", 
    "nf_wan": "0", 
    "password": "megasecret", 
    "per_site_vlans": "0", 
    "port01_vlan": "uplink", 
    "port02_vlan": "666", 
    "port03_vlan": "666", 
    "port04_vlan": "666", 
    "port05_vlan": "666", 
    "port06_vlan": "666", 
    "port07_vlan": "666", 
    "port08_vlan": "666", 
    "port09_vlan": "666", 
    "port10_vlan": "666", 
    "port11_vlan": "666", 
    "port12_vlan": "666", 
    "port13_vlan": "666", 
    "port14_vlan": "666", 
    "port15_vlan": "666", 
    "port16_vlan": "666", 
    "port17_vlan": "666", 
    "port18_vlan": "666", 
    "port19_vlan": "666", 
    "port20_vlan": "666", 
    "port21_vlan": "666", 
    "port22_vlan": "666", 
    "port23_vlan": "666", 
    "port24_vlan": "666", 
    "port25_vlan": "666", 
    "port26_vlan": "666", 
    "port27_vlan": "666", 
    "port28_vlan": "666", 
    "port29_vlan": "666", 
    "port30_vlan": "666", 
    "port31_vlan": "666", 
    "port32_vlan": "666", 
    "port33_vlan": "666", 
    "port34_vlan": "666", 
    "port35_vlan": "666", 
    "port36_vlan": "666", 
    "port37_vlan": "666", 
    "port38_vlan": "666", 
    "port39_vlan": "666", 
    "port40_vlan": "666", 
    "port41_vlan": "666", 
    "port42_vlan": "666", 
    "port43_vlan": "666", 
    "port44_vlan": "666", 
    "port45_vlan": "666", 
    "port46_vlan": "666", 
    "port47_vlan": "666", 
    "port48_vlan": "666", 
    "port49_vlan": "uplink", 
    "port50_vlan": "uplink", 
    "port51_vlan": "uplink", 
    "port52_vlan": "uplink", 
    "pvid": "1", 
    "site": "LABOR", 
    "stp_prio": "0", 
    "template_revision": "R001"
  }
}